%YAML 1.1
%TAG !u! tag:unity3d.com,2011:
--- !u!1001 &100100000
Prefab:
  m_ObjectHideFlags: 1
  serializedVersion: 2
  m_Modification:
    m_TransformParent: {fileID: 0}
    m_Modifications: []
    m_RemovedComponents: []
  m_ParentPrefab: {fileID: 0}
  m_RootGameObject: {fileID: 1272881104925538}
  m_IsPrefabParent: 1
--- !u!1 &1128288909909166
GameObject:
  m_ObjectHideFlags: 0
  m_PrefabParentObject: {fileID: 0}
  m_PrefabInternal: {fileID: 100100000}
  serializedVersion: 5
  m_Component:
  - component: {fileID: 4839207908076198}
  - component: {fileID: 212222214561152942}
  m_Layer: 0
  m_Name: EditorSprite
  m_TagString: Untagged
  m_Icon: {fileID: 0}
  m_NavMeshLayer: 0
  m_StaticEditorFlags: 0
  m_IsActive: 1
--- !u!1 &1272881104925538
GameObject:
  m_ObjectHideFlags: 0
  m_PrefabParentObject: {fileID: 0}
  m_PrefabInternal: {fileID: 100100000}
  serializedVersion: 5
  m_Component:
  - component: {fileID: 4161061488784998}
  - component: {fileID: 114825734737418410}
  m_Layer: 0
  m_Name: NPC
  m_TagString: Untagged
  m_Icon: {fileID: 0}
  m_NavMeshLayer: 0
  m_StaticEditorFlags: 0
  m_IsActive: 1
--- !u!4 &4161061488784998
Transform:
  m_ObjectHideFlags: 1
  m_PrefabParentObject: {fileID: 0}
  m_PrefabInternal: {fileID: 100100000}
  m_GameObject: {fileID: 1272881104925538}
  m_LocalRotation: {x: -0, y: -0, z: -0, w: 1}
  m_LocalPosition: {x: 1.8851677, y: 7.9692316, z: 0}
  m_LocalScale: {x: 1, y: 1, z: 1}
  m_Children:
  - {fileID: 4839207908076198}
  m_Father: {fileID: 0}
  m_RootOrder: 0
  m_LocalEulerAnglesHint: {x: 0, y: 0, z: 0}
--- !u!4 &4839207908076198
Transform:
  m_ObjectHideFlags: 1
  m_PrefabParentObject: {fileID: 0}
  m_PrefabInternal: {fileID: 100100000}
  m_GameObject: {fileID: 1128288909909166}
  m_LocalRotation: {x: -0, y: -0, z: -0, w: 1}
  m_LocalPosition: {x: 0, y: 0, z: 0}
  m_LocalScale: {x: 0.25, y: 0.25, z: 1}
  m_Children: []
  m_Father: {fileID: 4161061488784998}
  m_RootOrder: 0
  m_LocalEulerAnglesHint: {x: 0, y: 0, z: 0}
--- !u!114 &114825734737418410
MonoBehaviour:
  m_ObjectHideFlags: 1
  m_PrefabParentObject: {fileID: 0}
  m_PrefabInternal: {fileID: 100100000}
  m_GameObject: {fileID: 1272881104925538}
  m_Enabled: 1
  m_EditorHideFlags: 0
  m_Script: {fileID: 11500000, guid: daadbd6ea41570748b2bbc191daf73b3, type: 3}
  m_Name: 
  m_EditorClassIdentifier: 
  moveClip: {fileID: 8300000, guid: 43304e99fc9c0bd4daf78978d4d708dc, type: 3}
  turnStartedClip: {fileID: 8300000, guid: 92a25b585a54f97419d52368160019fe, type: 3}
  spawnClip: {fileID: 0}
  sprites:
  - {fileID: 21300000, guid: ca2200fbefda7aa438c0c2ca21b47fc1, type: 3}
  - {fileID: 21300002, guid: ca2200fbefda7aa438c0c2ca21b47fc1, type: 3}
  - {fileID: 21300004, guid: ca2200fbefda7aa438c0c2ca21b47fc1, type: 3}
  - {fileID: 21300006, guid: ca2200fbefda7aa438c0c2ca21b47fc1, type: 3}
  - {fileID: 21300008, guid: ca2200fbefda7aa438c0c2ca21b47fc1, type: 3}
  - {fileID: 21300010, guid: ca2200fbefda7aa438c0c2ca21b47fc1, type: 3}
  - {fileID: 21300012, guid: ca2200fbefda7aa438c0c2ca21b47fc1, type: 3}
  - {fileID: 21300014, guid: ca2200fbefda7aa438c0c2ca21b47fc1, type: 3}
  initialAngle: 0
  enemyClass: 4
  movementBehavior: 0
  interactionBehavior: 2
  PatrolNodes: []
  confrontationTextAsset: {fileID: 0}
--- !u!212 &212222214561152942
SpriteRenderer:
  m_ObjectHideFlags: 1
  m_PrefabParentObject: {fileID: 0}
  m_PrefabInternal: {fileID: 100100000}
  m_GameObject: {fileID: 1128288909909166}
  m_Enabled: 1
  m_CastShadows: 0
  m_ReceiveShadows: 0
  m_MotionVectors: 1
  m_LightProbeUsage: 0
  m_ReflectionProbeUsage: 0
  m_Materials:
  - {fileID: 10754, guid: 0000000000000000f000000000000000, type: 0}
  m_StaticBatchInfo:
    firstSubMesh: 0
    subMeshCount: 0
  m_StaticBatchRoot: {fileID: 0}
  m_ProbeAnchor: {fileID: 0}
  m_LightProbeVolumeOverride: {fileID: 0}
  m_ScaleInLightmap: 1
  m_PreserveUVs: 0
  m_IgnoreNormalsForChartDetection: 0
  m_ImportantGI: 0
  m_SelectedEditorRenderState: 0
  m_MinimumChartSize: 4
  m_AutoUVMaxDistance: 0.5
  m_AutoUVMaxAngle: 89
  m_LightmapParameters: {fileID: 0}
  m_SortingLayerID: 127765629
  m_SortingOrder: 0
  m_Sprite: {fileID: 21300000, guid: ca2200fbefda7aa438c0c2ca21b47fc1, type: 3}
  m_Color: {r: 1, g: 1, b: 1, a: 1}
  m_FlipX: 0
  m_FlipY: 0
