%YAML 1.1
%TAG !u! tag:unity3d.com,2011:
--- !u!1045 &1
EditorBuildSettings:
  m_ObjectHideFlags: 0
  serializedVersion: 2
  m_Scenes:
  - enabled: 1
    path: Assets/Scenes/Chapters/Chapter1/Chapter1.1.unity
    guid: f5d7374a97ff2014a9d158460f7fd1e4
  - enabled: 1
    path: Assets/Scenes/Chapters/Chapter1/Chapter1.2.unity
    guid: 3494ea9a6c020e14fae74671c109e8af
  - enabled: 1
    path: Assets/Scenes/Chapters/Chapter2/Chapter2.1.unity
    guid: 5fa765a9953535a4c97530465c0d2482
  - enabled: 1
    path: Assets/Scenes/Chapters/Chapter2/Chapter2.2.unity
    guid: 84b5ef4ab8a035649a197f381f77c7b6
  - enabled: 1
    path: Assets/Scenes/Chapters/Chapter3/Chapter3.1.unity
    guid: f9fdff99608773042b6a7df61cf685aa
  - enabled: 1
    path: Assets/Scenes/Chapters/Chapter3/Chapter3.2.unity
    guid: 51d2516b04644224cb2d5a6302439754
  - enabled: 1
    path: Assets/Scenes/Chapters/Chapter3/Chapter3.3.unity
    guid: 9cb201d9f195b1743b2ddf7720e92e7e
  - enabled: 1
    path: Assets/Scenes/Chapters/Chapter4/Chapter4.1.unity
    guid: 6877c03edfc75f544bff58a9bb568b5f
  - enabled: 1
    path: Assets/Scenes/Chapters/Chapter4/Chapter4.2.unity
    guid: 652f1c8b26d7fa148ae976388b552147
  - enabled: 1
    path: Assets/Scenes/Chapters/Chapter5/Chapter5.1.unity
    guid: 618b25a8ccc7dcb42b272fb3501c6b0f
  - enabled: 1
    path: Assets/Scenes/Chapters/Chapter5/Chapter5.2.unity
    guid: f844d0857240df64485702d9235ed70e
  - enabled: 1
    path: Assets/Scenes/Chapters/Chapter6/Chapter6.1.unity
    guid: cdac399adb601fc42b358f6bd7e1c724
  - enabled: 1
    path: Assets/Scenes/Chapters/Chapter6/Chapter6.2.unity
    guid: 32c0dabf469849a489eeb6456c4aac99
  - enabled: 1
    path: Assets/Scenes/Chapters/Chapter6/Chapter6.3.unity
    guid: c06731b830ea04b40bce47cf3c27ff39
  - enabled: 1
    path: Assets/Scenes/Chapters/Chapter6/Chapter6.4.unity
    guid: cc671efc1291d7e4592b7c793e45f753
  - enabled: 1
    path: Assets/Scenes/Chapters/Chapter6/Outro.unity
    guid: c83d1a462706a1e47bca4277b0e077cf
